[2016-10-18 11:49:05.850] [INFO] api - Connection Established To MongoDB
[2016-10-18 11:49:05.850] [INFO] api - Connection Established To Mahiruddin
[2016-10-18 11:53:02.568] [INFO] api - Connection Established To MongoDB
[2016-10-18 11:53:02.569] [INFO] api - Connection Established To Mahiruddin
[2016-10-18 11:53:37.117] [INFO] api - Incoming Body : {}
[2016-10-18 11:53:37.704] [INFO] api - Fetching Distributor Data Successfully.Count Is :  336
[2016-10-18 11:55:32.616] [INFO] api - Connection Established To MongoDB
[2016-10-18 11:55:32.616] [INFO] api - Connection Established To Mahiruddin
[2016-10-18 12:03:08.951] [INFO] api - Connection Established To MongoDB
[2016-10-18 12:03:08.955] [INFO] api - Connection Established To Mahiruddin
[2016-10-18 12:04:19.316] [INFO] api - Connection Established To MongoDB
[2016-10-18 12:05:06.010] [INFO] api - Connection Established To MongoDB
[2016-10-18 14:17:56.036] [INFO] api - Connection Established To MongoDB
[2016-10-18 14:43:51.947] [INFO] api - Connection Established To MongoDB
[2016-10-18 14:44:37.864] [INFO] api - Incoming Body : {"user_id":"RLX-2016-00097","password":"RLX-2016-00097"}
[2016-10-18 14:44:48.244] [INFO] api - Connection Established To MongoDB
[2016-10-18 14:45:56.825] [INFO] api - Connection Established To MongoDB
[2016-10-18 14:45:59.584] [INFO] api - Incoming Body : {"user_id":"RLX-2016-00097","password":"RLX-2016-00097"}
[2016-10-18 14:45:59.585] [INFO] api - User Search Query : {"user_id":"RLX-2016-00097"}
[2016-10-18 14:45:59.871] [INFO] api - Fetching User Data Successfully. User Count Is :  0
[2016-10-18 14:46:23.598] [INFO] api - User Id Is Not Supplied
[2016-10-18 14:46:33.823] [INFO] api - Password Is Not Supplied
[2016-10-18 14:50:36.322] [INFO] api - Incoming Body : {"user_id":"test","password":"test@2016"}
[2016-10-18 14:50:36.323] [INFO] api - User Search Query : {"user_id":"test"}
[2016-10-18 14:50:36.600] [INFO] api - Fetching User Data Successfully. User Count Is :  1
[2016-10-18 14:50:56.137] [INFO] api - Incoming Body : {"user_id":"test","password":"test@2016"}
[2016-10-18 14:50:56.137] [INFO] api - User Search Query : {"user_id":"test"}
[2016-10-18 14:50:56.408] [INFO] api - Fetching User Data Successfully. User Count Is :  1
[2016-10-18 14:52:01.873] [INFO] api - Connection Established To MongoDB
[2016-10-18 14:52:02.632] [INFO] api - Incoming Body : {"user_id":"test","password":"test@2016"}
[2016-10-18 14:52:02.633] [INFO] api - User Search Query : {"user_id":"test"}
[2016-10-18 14:52:02.903] [INFO] api - Fetching User Data Successfully. User Count Is :  1
[2016-10-18 14:55:07.886] [INFO] api - User Id Is Not Supplied
[2016-10-18 14:57:53.030] [INFO] api - Connection Established To MongoDB
[2016-10-18 14:58:17.310] [INFO] api - Connection Established To MongoDB
[2016-10-18 14:58:27.839] [INFO] api - User Id Is Not Supplied
[2016-10-18 14:58:37.572] [INFO] api - Password Is Not Supplied
[2016-10-18 14:58:43.801] [INFO] api - Incoming Body : {"user_id":"ddd","password":"ss"}
[2016-10-18 14:58:43.803] [INFO] api - User Search Query : {"user_id":"ddd"}
[2016-10-18 14:58:44.072] [INFO] api - Fetching User Data Successfully. User Count Is :  0
[2016-10-18 14:58:54.010] [INFO] api - Incoming Body : {"user_id":"test","password":"ss"}
[2016-10-18 14:58:54.010] [INFO] api - User Search Query : {"user_id":"test"}
[2016-10-18 14:58:54.285] [INFO] api - Fetching User Data Successfully. User Count Is :  1
[2016-10-18 14:59:04.382] [INFO] api - Incoming Body : {"user_id":"test","password":"test@2016"}
[2016-10-18 14:59:04.382] [INFO] api - User Search Query : {"user_id":"test"}
[2016-10-18 14:59:04.645] [INFO] api - Fetching User Data Successfully. User Count Is :  1
[2016-10-18 14:59:14.216] [INFO] api - Incoming Body : {"user_id":"rr","password":"test@2016"}
[2016-10-18 14:59:14.216] [INFO] api - User Search Query : {"user_id":"rr"}
[2016-10-18 14:59:14.488] [INFO] api - Fetching User Data Successfully. User Count Is :  0
[2016-10-18 14:59:59.746] [INFO] api - Incoming Body : {"user_id":"test","password":"test@2016"}
[2016-10-18 14:59:59.746] [INFO] api - User Search Query : {"user_id":"test"}
[2016-10-18 15:00:00.015] [INFO] api - Fetching User Data Successfully. User Count Is :  1
[2016-10-18 15:13:12.077] [INFO] api - Connection Established To MongoDB
[2016-10-18 15:13:52.898] [INFO] api - Password Is Not Supplied
[2016-10-18 15:14:27.201] [INFO] api - Password Is Not Supplied
[2016-10-18 15:14:34.455] [INFO] api - User Id Is Not Supplied
[2016-10-18 15:16:15.458] [INFO] api - Password Is Not Supplied
[2016-10-18 15:16:42.208] [INFO] api - Incoming Body : {"user_id":"test2","password":"test@2016","user_region":"","user_group_id":"","user_first_name":"Test2","user_middle_name":"","user_last_name":"","user_designation":"Tele Caller","user_password":"test@2016","user_registed_no":"8792485897","user_email_id":"test@annectos.in","status":0,"created_by":"admin"}
[2016-10-18 15:16:42.489] [INFO] api - User Registered Successfully.
[2016-10-18 15:19:39.974] [INFO] api - Connection Established To MongoDB
[2016-10-18 15:20:42.268] [INFO] api - Connection Established To MongoDB
[2016-10-18 15:21:12.667] [INFO] api - Incoming Body : {"user_id":"test2","user_password":"test@2016","user_region":"","user_group_id":"","user_first_name":"Test2","user_middle_name":"","user_last_name":"","user_designation":"Tele Caller","user_registed_no":"8792485897","user_email_id":"test@annectos.in","status":0,"created_by":"admin"}
[2016-10-18 15:21:12.946] [INFO] api - User Registered Successfully.
[2016-10-18 15:27:47.490] [INFO] api - Connection Established To MongoDB
[2016-10-18 15:27:48.041] [INFO] api - Incoming Body : {"user_id":"test2","user_password":"test@2016","user_type":"Tele Caller","user_region":"","user_group_id":"","user_first_name":"Test2","user_middle_name":"","user_last_name":"","user_designation":"Tele Caller","user_registed_no":"8792485897","user_email_id":"test@annectos.in","status":0,"created_by":"admin"}
[2016-10-18 15:27:48.320] [INFO] api - Fetching User Data Successfully. User Count Is :  1
[2016-10-18 15:27:56.838] [INFO] api - Incoming Body : {"user_id":"test3","user_password":"test@2016","user_type":"Tele Caller","user_region":"","user_group_id":"","user_first_name":"Test2","user_middle_name":"","user_last_name":"","user_designation":"Tele Caller","user_registed_no":"8792485897","user_email_id":"test@annectos.in","status":0,"created_by":"admin"}
[2016-10-18 15:27:57.103] [INFO] api - Fetching User Data Successfully. User Count Is :  0
[2016-10-18 15:27:57.383] [INFO] api - User Registered Successfully.
[2017-01-21 12:28:23.747] [INFO] api - Connection Established To MongoDB
[2017-01-21 12:29:21.917] [INFO] api - Incoming Body : {"user_id":"Vidya","password":"123456789"}
[2017-01-21 12:29:21.918] [INFO] api - User Search Query : {"user_id":"Vidya"}
[2017-01-21 12:29:22.200] [INFO] api - Fetching User Data Successfully. User Count Is :  1
[2017-01-21 12:29:22.863] [INFO] api - Sucessfully Getting the data 24
[2017-01-21 12:48:43.437] [INFO] api - Sucessfully inserted the data
[2017-01-21 12:58:21.507] [INFO] api - Connection Established To MongoDB
[2017-01-21 13:01:19.365] [INFO] api - Sucessfully inserted the data
[2017-01-21 13:01:29.410] [INFO] api - Sucessfully inserted the data
[2017-01-21 13:02:12.700] [INFO] api - Connection Established To MongoDB
[2017-01-21 13:02:48.291] [INFO] api - Connection Established To MongoDB
[2017-01-21 13:03:13.322] [INFO] api - Connection Established To MongoDB
[2017-01-21 13:03:27.456] [INFO] api - Connection Established To MongoDB
[2017-01-21 13:06:34.004] [INFO] api - Connection Established To MongoDB
[2017-01-21 13:07:14.179] [INFO] api - Connection Established To MongoDB
[2017-01-21 13:08:53.330] [INFO] api - Connection Established To MongoDB
[2017-01-21 13:09:46.155] [INFO] api - Connection Established To MongoDB
[2017-01-21 13:10:18.505] [INFO] api - Connection Established To MongoDB
[2017-01-21 13:14:12.266] [INFO] api - Fetching Retailer Successfully. User Count Is :  50
[2017-01-21 13:14:33.720] [INFO] api - Sucessfully Getting the data 24
[2017-01-21 13:23:39.946] [INFO] api - Incoming Body : {"user_id":"Test","password":"test@2016"}
[2017-01-21 13:23:39.946] [INFO] api - User Search Query : {"user_id":"Test"}
[2017-01-21 13:23:40.232] [INFO] api - Fetching User Data Successfully. User Count Is :  0
[2017-01-21 13:23:41.048] [INFO] api - Incoming Body : {"user_id":"Test","password":"test@2016"}
[2017-01-21 13:23:41.048] [INFO] api - User Search Query : {"user_id":"Test"}
[2017-01-21 13:23:41.335] [INFO] api - Fetching User Data Successfully. User Count Is :  0
[2017-01-21 13:23:41.817] [INFO] api - Incoming Body : {"user_id":"Test","password":"test@2016"}
[2017-01-21 13:23:41.817] [INFO] api - User Search Query : {"user_id":"Test"}
[2017-01-21 13:23:42.102] [INFO] api - Fetching User Data Successfully. User Count Is :  0
[2017-01-21 13:23:42.113] [INFO] api - Incoming Body : {"user_id":"Test","password":"test@2016"}
[2017-01-21 13:23:42.113] [INFO] api - User Search Query : {"user_id":"Test"}
[2017-01-21 13:23:42.400] [INFO] api - Fetching User Data Successfully. User Count Is :  0
[2017-01-21 13:24:03.940] [INFO] api - Incoming Body : {"user_id":"test","password":"test@2016"}
[2017-01-21 13:24:03.941] [INFO] api - User Search Query : {"user_id":"test"}
[2017-01-21 13:24:04.230] [INFO] api - Fetching User Data Successfully. User Count Is :  1
[2017-01-21 13:24:06.063] [INFO] api - Fetching Retailer Successfully. User Count Is :  50
[2017-01-21 13:24:15.985] [INFO] api - New Retailer Data Updated Successfully.
[2017-01-21 13:25:23.364] [INFO] api - Incoming Body : {"user_id":"test","password":"test@2016"}
[2017-01-21 13:25:23.364] [INFO] api - User Search Query : {"user_id":"test"}
[2017-01-21 13:25:23.640] [INFO] api - Fetching User Data Successfully. User Count Is :  1
[2017-01-21 13:25:25.510] [INFO] api - Fetching Retailer Successfully. User Count Is :  50
[2017-01-21 13:25:33.245] [INFO] api - New Retailer Data Updated Successfully.
[2017-01-21 13:26:05.890] [INFO] api - Incoming Body : {"user_id":"vidya","password":"123456789"}
[2017-01-21 13:26:05.890] [INFO] api - User Search Query : {"user_id":"vidya"}
[2017-01-21 13:26:06.167] [INFO] api - Fetching User Data Successfully. User Count Is :  0
[2017-01-21 13:29:48.964] [INFO] api - Incoming Body : {"user_id":"Vidya","password":"123456789"}
[2017-01-21 13:29:48.964] [INFO] api - User Search Query : {"user_id":"Vidya"}
[2017-01-21 13:29:49.264] [INFO] api - Fetching User Data Successfully. User Count Is :  1
[2017-01-21 13:29:49.911] [INFO] api - Sucessfully Getting the data 24
[2017-01-21 13:30:14.869] [INFO] api - Sucessfully inserted the data
[2017-01-21 13:33:15.682] [INFO] api - Incoming Body : {"user_id":"test","password":"test@2016"}
[2017-01-21 13:33:15.682] [INFO] api - User Search Query : {"user_id":"test"}
[2017-01-21 13:33:15.966] [INFO] api - Fetching User Data Successfully. User Count Is :  1
[2017-01-21 13:33:17.785] [INFO] api - Fetching Retailer Successfully. User Count Is :  50
[2017-01-21 13:33:29.281] [INFO] api - New Retailer Data Updated Successfully.
[2017-01-27 11:14:18.177] [INFO] api - Connection Established To MongoDB
[2017-01-27 11:23:58.081] [INFO] api - Incoming Body : {"user_id":"test","password":"test@2016"}
[2017-01-27 11:23:58.082] [INFO] api - User Search Query : {"user_id":"test"}
[2017-01-27 11:23:58.360] [INFO] api - Fetching User Data Successfully. User Count Is :  1
[2017-01-27 11:23:59.173] [INFO] api - Fetching Retailer Successfully. User Count Is :  16
[2017-01-27 11:27:25.387] [INFO] api - Fetching Retailer Successfully. User Count Is :  15
[2017-01-27 11:29:00.315] [INFO] api - Fetching Retailer Successfully. User Count Is :  14
[2017-01-27 11:30:12.242] [INFO] api - Fetching Retailer Successfully. User Count Is :  14
[2017-01-27 11:30:53.012] [INFO] api - Fetching Retailer Successfully. User Count Is :  14
[2017-01-27 11:32:49.708] [INFO] api - Fetching Retailer Successfully. User Count Is :  13
[2017-01-27 11:34:03.258] [INFO] api - Fetching Retailer Successfully. User Count Is :  13
[2017-01-27 11:34:27.038] [INFO] api - Fetching Retailer Successfully. User Count Is :  13
[2017-01-27 11:35:40.791] [INFO] api - Fetching Retailer Successfully. User Count Is :  12
[2017-01-27 11:35:55.319] [INFO] api - Fetching Retailer Successfully. User Count Is :  12
[2017-01-27 11:36:19.914] [INFO] api - New Retailer Data Updated Successfully.
[2017-01-27 11:47:37.285] [INFO] api - Connection Established To MongoDB
[2017-01-27 11:49:19.932] [INFO] api - New Retailer Data Updated Successfully.
[2017-01-27 11:49:35.014] [INFO] api - New Retailer Data Updated Successfully.
[2017-01-27 11:50:05.286] [INFO] api - Connection Established To MongoDB
[2017-01-27 11:50:38.391] [INFO] api - New Retailer Data Updated Successfully.
[2017-01-27 11:56:01.013] [INFO] api - Connection Established To MongoDB
[2017-01-27 12:00:38.331] [INFO] api - Connection Established To MongoDB
[2017-01-27 12:13:49.482] [INFO] api - Connection Established To MongoDB
[2017-01-27 12:16:39.242] [INFO] api - Connection Established To MongoDB
[2017-01-27 12:18:38.204] [INFO] api - Connection Established To MongoDB
[2017-01-27 12:18:45.300] [INFO] api - Connection Established To MongoDB
[2017-01-27 12:20:37.065] [INFO] api - New Retailer Data Updated Successfully.
[2017-04-05 13:19:40.041] [INFO] api - Connection Established To MongoDB
[2017-04-05 13:20:00.663] [INFO] api - Incoming Body : {"user_id":"test","password":"test@2016"}
[2017-04-05 13:20:00.664] [INFO] api - User Search Query : {"user_id":"test"}
[2017-04-05 13:20:00.952] [INFO] api - Fetching User Data Successfully. User Count Is :  1
[2017-04-05 13:20:02.982] [INFO] api - Fetching Retailer Successfully. User Count Is :  50
[2017-04-05 13:21:02.093] [INFO] api - Fetching Retailer Successfully. User Count Is :  50
[2017-04-05 13:21:40.579] [INFO] api - Fetching Retailer Successfully. User Count Is :  50
[2017-04-05 14:22:10.438] [INFO] api - Connection Established To MongoDB
[2017-04-05 14:22:15.582] [INFO] api - Incoming Body : {"user_id":"test","password":"test@2016"}
[2017-04-05 14:22:15.583] [INFO] api - User Search Query : {"user_id":"test"}
[2017-04-05 14:22:15.868] [INFO] api - Fetching User Data Successfully. User Count Is :  1
[2017-04-05 14:22:17.628] [INFO] api - Fetching Retailer Successfully. User Count Is :  50
[2017-04-05 14:41:10.826] [INFO] api - New Retailer Data Updated Successfully.
[2017-04-05 14:41:38.356] [INFO] api - Incoming Body : {"user_id":"test","password":"test@2016"}
[2017-04-05 14:41:38.357] [INFO] api - User Search Query : {"user_id":"test"}
[2017-04-05 14:41:38.633] [INFO] api - Fetching User Data Successfully. User Count Is :  1
[2017-04-05 14:41:40.175] [INFO] api - Fetching Retailer Successfully. User Count Is :  50
[2017-04-05 14:42:24.148] [INFO] api - New Retailer Data Updated Successfully.
[2017-04-05 14:43:31.658] [INFO] api - New Retailer Data Updated Successfully.
[2017-04-05 14:44:06.148] [INFO] api - New Retailer Data Updated Successfully.
[2017-04-05 14:51:11.312] [INFO] api - Connection Established To MongoDB
[2017-04-05 14:51:17.169] [INFO] api - New Retailer Data Updated Successfully.
[2017-04-05 14:51:17.170] [INFO] api - Retailer Code Is Not Supplied
[2017-04-05 14:51:46.130] [INFO] api - Connection Established To MongoDB
[2017-04-05 14:52:27.235] [INFO] api - New Retailer Data Updated Successfully.
[2017-04-05 14:52:27.236] [INFO] api - Retailer Code Is Not Supplied
[2017-04-05 14:54:27.244] [INFO] api - New Retailer Data Updated Successfully.
[2017-04-05 14:54:27.244] [INFO] api - Retailer Code Is Not Supplied
[2017-04-05 15:08:50.108] [INFO] api - Connection Established To MongoDB
[2017-04-05 15:09:18.924] [INFO] api - New Retailer Data Updated Successfully.
[2017-04-05 15:09:18.925] [INFO] api - Retailer Code Is Not Supplied
[2017-04-05 15:09:30.246] [INFO] api - Connection Established To MongoDB
[2017-04-05 15:20:53.374] [INFO] api - Connection Established To MongoDB
[2017-04-05 15:20:59.126] [INFO] api - New Retailer Data Updated Successfully.
[2017-04-05 15:21:44.371] [INFO] api - New Retailer Data Updated Successfully.
[2017-04-05 15:22:59.131] [INFO] api - New Retailer Data Updated Successfully.
[2017-04-05 15:23:48.602] [INFO] api - Incoming Body : {"user_id":"test","password":"test@2016"}
[2017-04-05 15:23:48.603] [INFO] api - User Search Query : {"user_id":"test"}
[2017-04-05 15:23:48.885] [INFO] api - Fetching User Data Successfully. User Count Is :  1
[2017-04-05 15:23:50.625] [INFO] api - Fetching Retailer Successfully. User Count Is :  50
[2017-04-05 15:23:55.407] [INFO] api - Fetching Retailer Successfully. User Count Is :  50
[2017-04-05 15:31:16.215] [INFO] api - Connection Established To MongoDB
[2017-04-05 15:31:31.353] [INFO] api - Connection Established To MongoDB
[2017-04-05 15:31:53.085] [INFO] api - Connection Established To MongoDB
[2017-04-05 15:32:35.334] [INFO] api - Incoming Body : {"user_id":"test","password":"test@2016"}
[2017-04-05 15:32:35.335] [INFO] api - User Search Query : {"user_id":"test"}
[2017-04-05 15:32:35.616] [INFO] api - Fetching User Data Successfully. User Count Is :  1
[2017-04-05 15:32:37.203] [INFO] api - Fetching Retailer Successfully. User Count Is :  50
[2017-04-05 15:34:10.252] [INFO] api - New Retailer Data Updated Successfully.
[2017-04-05 15:34:55.929] [INFO] api - Connection Established To MongoDB
[2017-04-05 15:35:02.503] [INFO] api - Connection Established To MongoDB
[2017-04-05 15:35:07.365] [INFO] api - New Retailer Data Updated Successfully.
[2017-04-05 15:35:54.600] [INFO] api - Connection Established To MongoDB
[2017-04-05 15:36:03.558] [INFO] api - Connection Established To MongoDB
[2017-04-05 15:36:06.699] [INFO] api - New Retailer Data Updated Successfully.
[2017-04-05 15:38:06.739] [INFO] api - New Retailer Data Updated Successfully.
[2017-04-05 16:03:28.326] [INFO] api - Connection Established To MongoDB
[2017-04-05 16:03:31.618] [INFO] api - New Retailer Data Updated Successfully.
[2017-04-05 16:05:27.568] [INFO] api - Connection Established To MongoDB
[2017-04-05 16:05:30.651] [INFO] api - New Retailer Data Updated Successfully.
[2017-04-05 16:05:36.143] [INFO] api - New Retailer Data Updated Successfully.
[2017-04-05 16:07:30.664] [INFO] api - New Retailer Data Updated Successfully.
[2017-04-05 16:07:36.157] [INFO] api - New Retailer Data Updated Successfully.
[2017-04-05 16:07:47.730] [INFO] api - Connection Established To MongoDB
[2017-04-05 16:07:52.089] [INFO] api - New Retailer Data Updated Successfully.
[2017-04-05 16:07:57.543] [INFO] api - New Retailer Data Updated Successfully.
[2017-04-05 16:09:52.095] [INFO] api - New Retailer Data Updated Successfully.
[2017-04-05 16:09:57.550] [INFO] api - New Retailer Data Updated Successfully.
[2017-04-05 16:13:43.935] [INFO] api - Connection Established To MongoDB
[2017-04-05 16:13:45.886] [INFO] api - New Retailer Data Updated Successfully.
[2017-04-05 16:13:58.378] [INFO] api - New Retailer Data Updated Successfully.
[2017-04-05 16:15:35.616] [INFO] api - Connection Established To MongoDB
[2017-04-05 16:15:44.167] [INFO] api - New Retailer Data Updated Successfully.
[2017-04-05 16:16:25.567] [INFO] api - Connection Established To MongoDB
[2017-04-05 16:16:29.791] [INFO] api - New Retailer Data Updated Successfully.
[2017-04-05 16:16:30.356] [INFO] api - Retailer logs updated Successfully.
[2017-04-05 16:18:46.646] [INFO] api - Connection Established To MongoDB
[2017-04-05 16:19:19.396] [INFO] api - Retailer logs updated Successfully.
[2017-04-05 16:19:20.248] [INFO] api - Retailer logs updated Successfully.
[2017-04-05 16:19:23.269] [INFO] api - Fetching Retailer Successfully. User Count Is :  50
[2017-04-05 16:29:32.495] [INFO] api - Fetching Retailer Successfully. User Count Is :  50
[2017-04-05 16:29:37.236] [INFO] api - Fetching Retailer Successfully. User Count Is :  50
[2017-04-05 16:29:40.920] [INFO] api - Fetching Retailer Successfully. User Count Is :  50
[2017-04-05 16:29:43.705] [INFO] api - Fetching Retailer Successfully. User Count Is :  50
[2017-04-05 16:29:49.574] [INFO] api - Fetching User Data Successfully. User Count Is :  22
[2017-04-05 16:29:49.575] [INFO] api - Fetching User Data Successfully. User :  [{"total_count":1,"user_id":"Vidya"},{"total_count":165,"user_id":"shahid"},{"total_count":267,"user_id":"jatin"},{"total_count":296,"user_id":"chethan"},{"total_count":441,"user_id":null},{"total_count":2,"user_id":"anuupam"},{"total_count":1,"user_id":"Divya"},{"total_count":330,"user_id":"emmanuel"},{"total_count":10,"user_id":"test"},{"total_count":40,"user_id":"shilpa"},{"total_count":41,"user_id":"jayanthi"},{"total_count":333,"user_id":"744"},{"total_count":357,"user_id":"Awanish"},{"total_count":449,"user_id":"709"},{"total_count":2,"user_id":"Shivraj"},{"total_count":316,"user_id":"jayalakshmi"},{"total_count":600,"user_id":"718"},{"total_count":548,"user_id":"703"},{"total_count":999,"user_id":"731"},{"total_count":443,"user_id":"732"},{"total_count":271,"user_id":"736"},{"total_count":550,"user_id":"715"}]
