[2017-04-05 16:29:50.123] [INFO] api - Fetching Retailer Successfully. User Count Is :  50
[2017-04-05 16:29:51.647] [INFO] api - Fetching Retailer Successfully. User Count Is :  50
[2017-04-05 16:29:53.333] [INFO] api - Fetching Retailer Successfully. User Count Is :  50
[2017-04-05 16:29:54.559] [INFO] api - Fetching Retailer Successfully. User Count Is :  50
[2017-04-05 16:30:01.597] [INFO] api - Fetching Retailer Successfully. User Count Is :  50
[2017-04-05 16:30:11.663] [INFO] api - Fetching User Data Successfully. User Count Is :  22
[2017-04-05 16:30:11.664] [INFO] api - Fetching User Data Successfully. User :  [{"total_count":1,"user_id":"Vidya"},{"total_count":165,"user_id":"shahid"},{"total_count":267,"user_id":"jatin"},{"total_count":296,"user_id":"chethan"},{"total_count":441,"user_id":null},{"total_count":2,"user_id":"anuupam"},{"total_count":1,"user_id":"Divya"},{"total_count":330,"user_id":"emmanuel"},{"total_count":10,"user_id":"test"},{"total_count":40,"user_id":"shilpa"},{"total_count":41,"user_id":"jayanthi"},{"total_count":333,"user_id":"744"},{"total_count":357,"user_id":"Awanish"},{"total_count":449,"user_id":"709"},{"total_count":2,"user_id":"Shivraj"},{"total_count":316,"user_id":"jayalakshmi"},{"total_count":600,"user_id":"718"},{"total_count":548,"user_id":"703"},{"total_count":999,"user_id":"731"},{"total_count":443,"user_id":"732"},{"total_count":271,"user_id":"736"},{"total_count":550,"user_id":"715"}]
[2017-04-05 16:30:11.679] [INFO] api - Fetching User Data Successfully. User Count Is :  0
[2017-04-05 16:30:12.078] [INFO] api - Fetching User Data Successfully. User Count Is :  0
[2017-04-05 16:30:12.097] [INFO] api - Fetching User Data Successfully. User Count Is :  22
[2017-04-05 16:30:12.097] [INFO] api - Fetching User Data Successfully. User :  [{"total_count":1,"user_id":"Vidya"},{"total_count":165,"user_id":"shahid"},{"total_count":267,"user_id":"jatin"},{"total_count":296,"user_id":"chethan"},{"total_count":441,"user_id":null},{"total_count":2,"user_id":"anuupam"},{"total_count":1,"user_id":"Divya"},{"total_count":330,"user_id":"emmanuel"},{"total_count":10,"user_id":"test"},{"total_count":40,"user_id":"shilpa"},{"total_count":41,"user_id":"jayanthi"},{"total_count":333,"user_id":"744"},{"total_count":357,"user_id":"Awanish"},{"total_count":449,"user_id":"709"},{"total_count":2,"user_id":"Shivraj"},{"total_count":316,"user_id":"jayalakshmi"},{"total_count":600,"user_id":"718"},{"total_count":548,"user_id":"703"},{"total_count":999,"user_id":"731"},{"total_count":443,"user_id":"732"},{"total_count":271,"user_id":"736"},{"total_count":550,"user_id":"715"}]
[2017-04-05 16:30:16.477] [INFO] api - Fetching User Data Successfully. User Count Is :  22
[2017-04-05 16:30:16.477] [INFO] api - Fetching User Data Successfully. User :  [{"total_count":1,"user_id":"Vidya"},{"total_count":165,"user_id":"shahid"},{"total_count":267,"user_id":"jatin"},{"total_count":296,"user_id":"chethan"},{"total_count":441,"user_id":null},{"total_count":2,"user_id":"anuupam"},{"total_count":1,"user_id":"Divya"},{"total_count":330,"user_id":"emmanuel"},{"total_count":10,"user_id":"test"},{"total_count":40,"user_id":"shilpa"},{"total_count":41,"user_id":"jayanthi"},{"total_count":333,"user_id":"744"},{"total_count":357,"user_id":"Awanish"},{"total_count":449,"user_id":"709"},{"total_count":2,"user_id":"Shivraj"},{"total_count":316,"user_id":"jayalakshmi"},{"total_count":600,"user_id":"718"},{"total_count":548,"user_id":"703"},{"total_count":999,"user_id":"731"},{"total_count":443,"user_id":"732"},{"total_count":271,"user_id":"736"},{"total_count":550,"user_id":"715"}]
[2017-04-05 16:30:17.026] [INFO] api - Fetching User Data Successfully. User Count Is :  39
[2017-04-05 16:30:31.375] [INFO] api - Fetching Retailer Successfully. User Count Is :  50
[2017-04-05 16:30:47.953] [INFO] api - Fetching Retailer Successfully. User Count Is :  50
[2017-04-05 16:35:54.927] [INFO] api - Connection Established To MongoDB
[2017-04-05 16:36:00.187] [INFO] api - Incoming Body : {"user_id":"test","password":"test@2016"}
[2017-04-05 16:36:00.188] [INFO] api - User Search Query : {"user_id":"test"}
[2017-04-05 16:36:00.477] [INFO] api - Fetching User Data Successfully. User Count Is :  1
[2017-04-05 16:36:02.037] [INFO] api - Fetching Retailer Successfully. User Count Is :  50
[2017-04-05 16:36:18.340] [INFO] api - New Retailer Data Updated Successfully.
[2017-04-05 16:38:19.303] [INFO] api - Connection Established To MongoDB
[2017-04-05 16:38:24.768] [INFO] api - Connection Established To MongoDB
[2017-04-05 16:39:45.909] [INFO] api - Connection Established To MongoDB
[2017-04-05 16:40:07.613] [INFO] api - New Retailer Data Updated Successfully.
[2017-04-05 16:40:08.185] [INFO] api - Retailer logs updated Successfully.
[2017-04-05 16:40:41.196] [INFO] api - New Retailer Data Updated Successfully.
[2017-04-05 16:40:41.759] [INFO] api - Retailer logs updated Successfully.
[2017-04-05 16:41:16.514] [INFO] api - Retailer logs updated Successfully.
[2017-04-05 16:41:17.364] [INFO] api - Retailer logs updated Successfully.
[2017-04-05 16:41:20.138] [INFO] api - Fetching Retailer Successfully. User Count Is :  50
[2017-04-05 16:42:11.463] [INFO] api - New Retailer Data Updated Successfully.
[2017-04-05 16:42:11.506] [INFO] api - New Retailer Data Updated Successfully.
[2017-04-05 16:42:12.025] [INFO] api - Retailer logs updated Successfully.
[2017-04-05 16:42:12.067] [INFO] api - Retailer logs updated Successfully.
[2017-04-05 16:42:26.136] [INFO] api - New Retailer Data Updated Successfully.
[2017-04-05 16:42:26.698] [INFO] api - Retailer logs updated Successfully.
[2017-04-05 16:46:35.069] [INFO] api - Connection Established To MongoDB
[2017-04-05 16:47:44.553] [INFO] api - Fetching Retailer Successfully. User Count Is :  50
[2017-04-05 16:47:45.578] [INFO] api - Fetching User Data Successfully. User Count Is :  22
[2017-04-05 16:47:45.578] [INFO] api - Fetching User Data Successfully. User :  [{"total_count":1,"user_id":"Vidya"},{"total_count":165,"user_id":"shahid"},{"total_count":270,"user_id":"jatin"},{"total_count":296,"user_id":"chethan"},{"total_count":440,"user_id":null},{"total_count":2,"user_id":"anuupam"},{"total_count":1,"user_id":"Divya"},{"total_count":330,"user_id":"emmanuel"},{"total_count":11,"user_id":"test"},{"total_count":40,"user_id":"shilpa"},{"total_count":41,"user_id":"jayanthi"},{"total_count":333,"user_id":"744"},{"total_count":357,"user_id":"Awanish"},{"total_count":449,"user_id":"709"},{"total_count":2,"user_id":"Shivraj"},{"total_count":316,"user_id":"jayalakshmi"},{"total_count":600,"user_id":"718"},{"total_count":548,"user_id":"703"},{"total_count":999,"user_id":"731"},{"total_count":443,"user_id":"732"},{"total_count":271,"user_id":"736"},{"total_count":550,"user_id":"715"}]
[2017-04-05 16:47:46.667] [INFO] api - Fetching Retailer Successfully. User Count Is :  50
[2017-04-05 16:48:02.981] [INFO] api - Fetching Retailer Successfully. User Count Is :  50
[2017-04-05 16:48:24.170] [INFO] api - New Retailer Data Updated Successfully.
[2017-04-05 16:49:58.510] [INFO] api - Connection Established To MongoDB
[2017-04-05 16:50:01.261] [INFO] api - New Retailer Data Updated Successfully.
[2017-04-05 16:50:01.827] [INFO] api - Retailer logs updated Successfully.
[2017-04-05 16:50:32.199] [INFO] api - Retailer logs updated Successfully.
[2017-04-05 16:50:33.048] [INFO] api - Retailer logs updated Successfully.
[2017-04-05 16:50:35.877] [INFO] api - Fetching Retailer Successfully. User Count Is :  50
[2017-04-05 16:50:39.144] [INFO] api - Fetching Retailer Successfully. User Count Is :  50
[2017-04-05 16:50:45.473] [INFO] api - Fetching Retailer Successfully. User Count Is :  50
[2017-04-05 16:50:53.985] [INFO] api - Fetching Retailer Successfully. User Count Is :  50
[2017-04-05 16:59:19.912] [INFO] api - New Retailer Data Updated Successfully.
[2017-04-05 17:00:18.162] [INFO] api - Fetching Retailer Successfully. User Count Is :  50
[2017-04-05 17:01:09.197] [INFO] api - Fetching Retailer Successfully. User Count Is :  50
[2017-04-05 17:05:37.216] [INFO] api - Connection Established To MongoDB
[2017-04-05 17:05:55.194] [INFO] api - Fetching Retailer Successfully. User Count Is :  50
[2017-04-05 17:06:06.470] [INFO] api - New Retailer Data Updated Successfully.
[2017-04-05 17:06:07.041] [INFO] api - Retailer logs updated Successfully.
[2017-04-05 17:13:00.253] [INFO] api - Connection Established To MongoDB
[2017-04-05 17:13:06.011] [INFO] api - New Retailer Data Updated Successfully.
[2017-04-05 17:13:06.576] [INFO] api - Retailer logs updated Successfully.
[2017-04-05 17:14:25.459] [INFO] api - Connection Established To MongoDB
[2017-04-05 17:14:28.781] [INFO] api - New Retailer Data Updated Successfully.
[2017-04-05 17:14:56.884] [INFO] api - Connection Established To MongoDB
[2017-04-05 17:15:01.811] [INFO] api - Connection Established To MongoDB
[2017-04-05 17:15:06.331] [INFO] api - Error in Updating Retailer Data,err:Unknown modifier: loyalty_survey_status
[2017-04-05 17:20:26.284] [INFO] api - Connection Established To MongoDB
[2017-04-05 17:21:48.435] [INFO] api - Connection Established To MongoDB
[2017-04-05 17:21:58.630] [INFO] api - Connection Established To MongoDB
[2017-04-05 17:30:28.092] [INFO] api - Connection Established To MongoDB
[2017-04-05 17:31:05.679] [INFO] api - New Retailer Data Updated Successfully.
[2017-04-05 17:31:06.246] [INFO] api - Retailer logs updated Successfully.
[2017-04-05 17:33:13.212] [INFO] api - New Retailer Data Updated Successfully.
[2017-04-05 17:33:13.776] [INFO] api - Retailer logs updated Successfully.
[2017-04-05 17:36:10.427] [INFO] api - Connection Established To MongoDB
[2017-04-05 17:36:16.352] [INFO] api - Error in Updating Retailer Data,err:Unknown modifier: call_status
[2017-04-05 17:44:16.791] [INFO] api - Connection Established To MongoDB
[2017-04-05 17:44:31.601] [INFO] api - New Retailer Data Updated Successfully.
[2017-04-05 17:44:32.170] [INFO] api - Retailer logs updated Successfully.
[2017-04-05 17:44:42.463] [INFO] api - New Retailer Data Updated Successfully.
[2017-04-05 17:44:43.026] [INFO] api - Retailer logs updated Successfully.
[2017-04-05 17:46:16.495] [INFO] api - Connection Established To MongoDB
[2017-04-05 17:46:28.302] [INFO] api - Connection Established To MongoDB
[2017-04-05 17:47:20.925] [INFO] api - Incoming Body : {"user_id":"test","password":"test@2016"}
[2017-04-05 17:47:20.926] [INFO] api - User Search Query : {"user_id":"test"}
[2017-04-05 17:47:21.211] [INFO] api - Fetching User Data Successfully. User Count Is :  1
[2017-04-05 17:47:22.789] [INFO] api - Fetching Retailer Successfully. User Count Is :  50
[2017-04-05 17:47:52.270] [INFO] api - New Retailer Data Updated Successfully.
[2017-04-05 17:48:13.276] [INFO] api - Connection Established To MongoDB
[2017-04-05 17:48:34.870] [INFO] api - Connection Established To MongoDB
[2017-04-05 17:48:41.067] [INFO] api - New Retailer Data Updated Successfully.
[2017-04-05 17:48:41.637] [INFO] api - Retailer logs updated Successfully.
[2017-04-05 17:50:00.420] [INFO] api - Connection Established To MongoDB
[2017-04-05 17:50:12.314] [INFO] api - New Retailer Data Updated Successfully.
[2017-04-05 17:50:12.887] [INFO] api - Retailer logs updated Successfully.
[2017-04-05 17:52:28.944] [INFO] api - New Retailer Data Updated Successfully.
[2017-04-05 17:52:29.514] [INFO] api - Retailer logs updated Successfully.
[2017-04-05 17:52:55.328] [INFO] api - New Retailer Data Updated Successfully.
[2017-04-05 17:52:55.899] [INFO] api - Retailer logs updated Successfully.
[2017-04-05 17:57:14.344] [INFO] api - Connection Established To MongoDB
[2017-04-05 17:57:19.400] [INFO] api - New Retailer Data Updated Successfully.
[2017-04-05 17:57:19.968] [INFO] api - Retailer logs updated Successfully.
[2017-04-05 17:57:57.193] [INFO] api - Fetching Retailer Successfully. User Count Is :  50
[2017-04-05 17:58:04.288] [INFO] api - Fetching Retailer Successfully. User Count Is :  50
[2017-04-05 17:58:22.187] [INFO] api - Fetching Retailer Successfully. User Count Is :  50
[2017-04-05 17:58:23.052] [INFO] api - Fetching User Data Successfully. User Count Is :  22
[2017-04-05 17:58:23.052] [INFO] api - Fetching User Data Successfully. User :  [{"total_count":1,"user_id":"Vidya"},{"total_count":164,"user_id":"shahid"},{"total_count":279,"user_id":"jatin"},{"total_count":296,"user_id":"chethan"},{"total_count":439,"user_id":null},{"total_count":2,"user_id":"anuupam"},{"total_count":1,"user_id":"Divya"},{"total_count":330,"user_id":"emmanuel"},{"total_count":12,"user_id":"test"},{"total_count":40,"user_id":"shilpa"},{"total_count":41,"user_id":"jayanthi"},{"total_count":333,"user_id":"744"},{"total_count":357,"user_id":"Awanish"},{"total_count":449,"user_id":"709"},{"total_count":2,"user_id":"Shivraj"},{"total_count":316,"user_id":"jayalakshmi"},{"total_count":600,"user_id":"718"},{"total_count":548,"user_id":"703"},{"total_count":999,"user_id":"731"},{"total_count":443,"user_id":"732"},{"total_count":271,"user_id":"736"},{"total_count":549,"user_id":"715"}]
[2017-04-05 17:58:24.134] [INFO] api - Fetching Retailer Successfully. User Count Is :  50
[2017-04-05 17:58:25.781] [INFO] api - Fetching User Data Successfully. User Count Is :  22
[2017-04-05 17:58:25.782] [INFO] api - Fetching User Data Successfully. User :  [{"total_count":1,"user_id":"Vidya"},{"total_count":164,"user_id":"shahid"},{"total_count":279,"user_id":"jatin"},{"total_count":296,"user_id":"chethan"},{"total_count":439,"user_id":null},{"total_count":2,"user_id":"anuupam"},{"total_count":1,"user_id":"Divya"},{"total_count":330,"user_id":"emmanuel"},{"total_count":12,"user_id":"test"},{"total_count":40,"user_id":"shilpa"},{"total_count":41,"user_id":"jayanthi"},{"total_count":333,"user_id":"744"},{"total_count":357,"user_id":"Awanish"},{"total_count":449,"user_id":"709"},{"total_count":2,"user_id":"Shivraj"},{"total_count":316,"user_id":"jayalakshmi"},{"total_count":600,"user_id":"718"},{"total_count":548,"user_id":"703"},{"total_count":999,"user_id":"731"},{"total_count":443,"user_id":"732"},{"total_count":271,"user_id":"736"},{"total_count":549,"user_id":"715"}]
[2017-04-05 17:58:25.786] [INFO] api - Fetching User Data Successfully. User Count Is :  1
[2017-04-05 17:59:08.701] [INFO] api - New Retailer Data Updated Successfully.
[2017-04-05 17:59:09.267] [INFO] api - Retailer logs updated Successfully.
[2017-04-05 17:59:31.242] [INFO] api - New Retailer Data Updated Successfully.
[2017-04-05 17:59:31.804] [INFO] api - Retailer logs updated Successfully.
[2017-04-05 17:59:44.599] [INFO] api - New Retailer Data Updated Successfully.
[2017-04-05 17:59:45.160] [INFO] api - Retailer logs updated Successfully.
[2017-04-05 18:00:02.318] [INFO] api - Retailer logs updated Successfully.
[2017-04-05 18:00:03.169] [INFO] api - Retailer logs updated Successfully.
[2017-04-05 18:00:05.511] [INFO] api - Fetching Retailer Successfully. User Count Is :  50
[2017-04-05 18:55:02.959] [INFO] api - Connection Established To MongoDB
[2017-04-05 19:01:02.839] [INFO] api - Incoming Body : {"user_id":"test","password":"test@2016"}
[2017-04-05 19:01:02.840] [INFO] api - User Search Query : {"user_id":"test"}
[2017-04-05 19:01:03.128] [INFO] api - Fetching User Data Successfully. User Count Is :  1
[2017-04-05 19:01:04.450] [INFO] api - Fetching Retailer Successfully. User Count Is :  50
[2017-04-05 19:01:06.045] [INFO] api - Fetching User Data Successfully. User Count Is :  21
[2017-04-05 19:01:06.045] [INFO] api - Fetching User Data Successfully. User :  [{"total_count":1,"user_id":"Vidya"},{"total_count":164,"user_id":"shahid"},{"total_count":279,"user_id":"jatin"},{"total_count":296,"user_id":"chethan"},{"total_count":439,"user_id":null},{"total_count":2,"user_id":"anuupam"},{"total_count":330,"user_id":"emmanuel"},{"total_count":13,"user_id":"test"},{"total_count":40,"user_id":"shilpa"},{"total_count":41,"user_id":"jayanthi"},{"total_count":333,"user_id":"744"},{"total_count":449,"user_id":"709"},{"total_count":357,"user_id":"Awanish"},{"total_count":548,"user_id":"715"},{"total_count":2,"user_id":"Shivraj"},{"total_count":316,"user_id":"jayalakshmi"},{"total_count":600,"user_id":"718"},{"total_count":548,"user_id":"703"},{"total_count":442,"user_id":"732"},{"total_count":999,"user_id":"731"},{"total_count":271,"user_id":"736"}]
[2017-04-05 19:01:06.586] [INFO] api - Fetching Retailer Successfully. User Count Is :  50
[2017-04-05 19:03:12.755] [INFO] api - Connection Established To MongoDB
[2017-04-05 19:07:45.938] [INFO] api - Fetching Retailer Successfully. User Count Is :  0
[2017-04-05 19:08:18.592] [INFO] api - Connection Established To MongoDB
[2017-04-05 19:08:24.749] [INFO] api - Fetching Retailer Successfully. User Count Is :  0
[2017-04-05 19:08:27.155] [INFO] api - Fetching Retailer Successfully. User Count Is :  0
[2017-04-05 19:08:27.165] [INFO] api - Fetching User Data Successfully. User Count Is :  9
[2017-04-05 19:08:27.165] [INFO] api - Fetching User Data Successfully. User :  [{"total_count":1,"user_id":"test"},{"total_count":30,"user_id":"735"},{"total_count":37,"user_id":"shivraj"},{"total_count":1309,"user_id":"emmanuel"},{"total_count":370,"user_id":"chethan"},{"total_count":629,"user_id":"Nalini"},{"total_count":8,"user_id":"791"},{"total_count":1,"user_id":"jatin"},{"total_count":127,"user_id":"792"}]
[2017-04-05 19:08:28.942] [INFO] api - Fetching User Data Successfully. User Count Is :  0
[2017-04-05 19:08:28.947] [INFO] api - Fetching User Data Successfully. User Count Is :  9
[2017-04-05 19:08:28.947] [INFO] api - Fetching User Data Successfully. User :  [{"total_count":1,"user_id":"test"},{"total_count":30,"user_id":"735"},{"total_count":37,"user_id":"shivraj"},{"total_count":1309,"user_id":"emmanuel"},{"total_count":370,"user_id":"chethan"},{"total_count":629,"user_id":"Nalini"},{"total_count":8,"user_id":"791"},{"total_count":1,"user_id":"jatin"},{"total_count":127,"user_id":"792"}]
[2017-04-05 19:08:30.324] [INFO] api - Fetching User Data Successfully. User Count Is :  9
[2017-04-05 19:08:30.324] [INFO] api - Fetching User Data Successfully. User :  [{"total_count":1,"user_id":"test"},{"total_count":30,"user_id":"735"},{"total_count":37,"user_id":"shivraj"},{"total_count":1309,"user_id":"emmanuel"},{"total_count":370,"user_id":"chethan"},{"total_count":629,"user_id":"Nalini"},{"total_count":8,"user_id":"791"},{"total_count":1,"user_id":"jatin"},{"total_count":127,"user_id":"792"}]
[2017-04-05 19:08:30.888] [INFO] api - Fetching User Data Successfully. User Count Is :  50
[2017-04-05 19:08:31.159] [INFO] api - Fetching User Data Successfully. User Count Is :  9
[2017-04-05 19:08:31.159] [INFO] api - Fetching User Data Successfully. User :  [{"total_count":1,"user_id":"test"},{"total_count":30,"user_id":"735"},{"total_count":37,"user_id":"shivraj"},{"total_count":1309,"user_id":"emmanuel"},{"total_count":370,"user_id":"chethan"},{"total_count":629,"user_id":"Nalini"},{"total_count":8,"user_id":"791"},{"total_count":1,"user_id":"jatin"},{"total_count":127,"user_id":"792"}]
[2017-04-05 19:08:31.720] [INFO] api - Fetching User Data Successfully. User Count Is :  50
[2017-04-05 19:09:06.785] [INFO] api - New Retailer Data Updated Successfully.
[2017-04-05 19:09:07.341] [INFO] api - Retailer logs updated Successfully.
[2017-04-05 19:11:08.793] [INFO] api - Connection Established To MongoDB
[2017-04-05 19:18:16.173] [INFO] api - Retailer logs updated Successfully.
[2017-04-05 19:18:17.018] [INFO] api - Retailer logs updated Successfully.
[2017-04-05 19:18:18.731] [INFO] api - Fetching Retailer Successfully. User Count Is :  0
[2017-04-05 19:18:40.257] [INFO] api - Fetching User Data Successfully. User Count Is :  9
[2017-04-05 19:18:40.258] [INFO] api - Fetching User Data Successfully. User :  [{"total_count":2,"user_id":"test"},{"total_count":30,"user_id":"735"},{"total_count":37,"user_id":"shivraj"},{"total_count":1309,"user_id":"emmanuel"},{"total_count":370,"user_id":"chethan"},{"total_count":628,"user_id":"Nalini"},{"total_count":8,"user_id":"791"},{"total_count":1,"user_id":"jatin"},{"total_count":127,"user_id":"792"}]
[2017-04-05 19:18:40.259] [INFO] api - Fetching Retailer Successfully. User Count Is :  0
[2017-04-05 19:18:41.938] [INFO] api - Fetching User Data Successfully. User Count Is :  9
