[2016-10-18 11:49:01.801] [INFO] server - express loaded
[2016-10-18 11:49:01.815] [INFO] server - all routes are loaded
[2016-10-18 11:49:01.823] [INFO] server - http server started
[2016-10-18 11:49:01.823] [INFO] server - Listening to port 35000
[2016-10-18 11:52:58.423] [INFO] server - express loaded
[2016-10-18 11:52:58.430] [INFO] server - all routes are loaded
[2016-10-18 11:52:58.435] [INFO] server - http server started
[2016-10-18 11:52:58.435] [INFO] server - Listening to port 35000
[2016-10-18 11:55:28.140] [INFO] server - express loaded
[2016-10-18 11:55:28.162] [INFO] server - all routes are loaded
[2016-10-18 11:55:28.169] [INFO] server - http server started
[2016-10-18 11:55:28.170] [INFO] server - Listening to port 35000
[2016-10-18 12:03:05.195] [INFO] server - express loaded
[2016-10-18 12:03:05.209] [INFO] server - all routes are loaded
[2016-10-18 12:03:05.215] [INFO] server - http server started
[2016-10-18 12:03:05.216] [INFO] server - Listening to port 35000
[2016-10-18 12:03:15.793] [INFO] server - Route Sub System: LOGIN
Method: GET
URL:/login/allocation/disti/list/vp
[2016-10-18 12:04:00.828] [INFO] server - express loaded
[2016-10-18 12:04:00.835] [INFO] server - all routes are loaded
[2016-10-18 12:04:00.839] [INFO] server - http server started
[2016-10-18 12:04:00.840] [INFO] server - Listening to port 35000
[2016-10-18 12:04:58.325] [INFO] server - express loaded
[2016-10-18 12:04:58.374] [INFO] server - all routes are loaded
[2016-10-18 12:04:58.394] [INFO] server - http server started
[2016-10-18 12:04:58.394] [INFO] server - Listening to port 35000
[2016-10-18 14:17:51.983] [INFO] server - express loaded
[2016-10-18 14:17:51.990] [INFO] server - all routes are loaded
[2016-10-18 14:17:51.994] [INFO] server - http server started
[2016-10-18 14:17:51.994] [INFO] server - Listening to port 35000
[2016-10-18 14:43:17.526] [INFO] server - express loaded
[2016-10-18 14:43:17.533] [INFO] server - all routes are loaded
[2016-10-18 14:43:17.538] [INFO] server - http server started
[2016-10-18 14:43:17.538] [INFO] server - Listening to port 35000
[2016-10-18 14:44:09.433] [INFO] server - Route Sub System: LOGIN
Method: POST
URL:/login/user/login
[2016-10-18 14:44:32.698] [INFO] server - express loaded
[2016-10-18 14:44:32.704] [INFO] server - all routes are loaded
[2016-10-18 14:44:32.708] [INFO] server - http server started
[2016-10-18 14:44:32.709] [INFO] server - Listening to port 35000
[2016-10-18 14:45:48.078] [INFO] server - express loaded
[2016-10-18 14:45:48.085] [INFO] server - all routes are loaded
[2016-10-18 14:45:48.089] [INFO] server - http server started
[2016-10-18 14:45:48.089] [INFO] server - Listening to port 35000
[2016-10-18 14:51:57.990] [INFO] server - express loaded
[2016-10-18 14:51:57.997] [INFO] server - all routes are loaded
[2016-10-18 14:51:58.002] [INFO] server - http server started
[2016-10-18 14:51:58.002] [INFO] server - Listening to port 35000
[2016-10-18 14:57:48.508] [INFO] server - express loaded
[2016-10-18 14:57:48.514] [INFO] server - all routes are loaded
[2016-10-18 14:57:48.519] [INFO] server - http server started
[2016-10-18 14:57:48.519] [INFO] server - Listening to port 35000
[2016-10-18 14:58:13.461] [INFO] server - express loaded
[2016-10-18 14:58:13.468] [INFO] server - all routes are loaded
[2016-10-18 14:58:13.472] [INFO] server - http server started
[2016-10-18 14:58:13.472] [INFO] server - Listening to port 35000
[2016-10-18 15:13:08.227] [INFO] server - express loaded
[2016-10-18 15:13:08.234] [INFO] server - all routes are loaded
[2016-10-18 15:13:08.238] [INFO] server - http server started
[2016-10-18 15:13:08.239] [INFO] server - Listening to port 35000
[2016-10-18 15:19:36.034] [INFO] server - express loaded
[2016-10-18 15:19:36.040] [INFO] server - all routes are loaded
[2016-10-18 15:19:36.044] [INFO] server - http server started
[2016-10-18 15:19:36.044] [INFO] server - Listening to port 35000
[2016-10-18 15:20:38.401] [INFO] server - express loaded
[2016-10-18 15:20:38.408] [INFO] server - all routes are loaded
[2016-10-18 15:20:38.412] [INFO] server - http server started
[2016-10-18 15:20:38.413] [INFO] server - Listening to port 35000
[2016-10-18 15:27:43.527] [INFO] server - express loaded
[2016-10-18 15:27:43.534] [INFO] server - all routes are loaded
[2016-10-18 15:27:43.538] [INFO] server - http server started
[2016-10-18 15:27:43.538] [INFO] server - Listening to port 35000
[2017-01-21 12:28:19.162] [INFO] server - express loaded
[2017-01-21 12:28:19.184] [INFO] server - all routes are loaded
[2017-01-21 12:28:19.202] [INFO] server - http server started
[2017-01-21 12:28:19.203] [INFO] server - Listening to port 35000
[2017-01-21 12:29:22.639] [INFO] server - Route Sub System: MASTER
Method: POST
URL:/master/renew/token
[2017-01-21 12:48:43.135] [INFO] server - Route Sub System: MASTER
Method: POST
URL:/master/renew/token
[2017-01-21 12:58:18.098] [INFO] server - express loaded
[2017-01-21 12:58:18.103] [INFO] server - all routes are loaded
[2017-01-21 12:58:18.106] [INFO] server - http server started
[2017-01-21 12:58:18.106] [INFO] server - Listening to port 35000
[2017-01-21 12:58:25.310] [INFO] server - Route Sub System: MASTER
Method: POST
URL:/master/renew/token
[2017-01-21 12:59:55.149] [INFO] server - Route Sub System: MASTER
Method: POST
URL:/master/renew/token
[2017-01-21 13:01:03.480] [INFO] server - Route Sub System: MASTER
Method: POST
URL:/master/renew/token
[2017-01-21 13:01:19.055] [INFO] server - Route Sub System: MASTER
Method: POST
URL:/master/renew/token
[2017-01-21 13:01:29.124] [INFO] server - Route Sub System: MASTER
Method: POST
URL:/master/renew/token
[2017-01-21 13:01:35.193] [INFO] server - Route Sub System: MASTER
Method: POST
URL:/master/renew/token
[2017-01-21 13:02:09.079] [INFO] server - express loaded
[2017-01-21 13:02:09.086] [INFO] server - all routes are loaded
[2017-01-21 13:02:09.089] [INFO] server - http server started
[2017-01-21 13:02:09.089] [INFO] server - Listening to port 35000
[2017-01-21 13:02:15.419] [INFO] server - Route Sub System: MASTER
Method: POST
URL:/master/renew/token
[2017-01-21 13:02:44.816] [INFO] server - express loaded
[2017-01-21 13:02:44.821] [INFO] server - all routes are loaded
[2017-01-21 13:02:44.824] [INFO] server - http server started
[2017-01-21 13:02:44.824] [INFO] server - Listening to port 35000
[2017-01-21 13:02:49.811] [INFO] server - Route Sub System: MASTER
Method: POST
URL:/master/renew/token
[2017-01-21 13:03:07.361] [INFO] server - express loaded
[2017-01-21 13:03:07.368] [INFO] server - all routes are loaded
[2017-01-21 13:03:07.372] [INFO] server - http server started
[2017-01-21 13:03:07.374] [INFO] server - Listening to port 35000
[2017-01-21 13:03:12.791] [INFO] server - Route Sub System: MASTER
Method: POST
URL:/master/renew/token
[2017-01-21 13:03:24.085] [INFO] server - express loaded
[2017-01-21 13:03:24.091] [INFO] server - all routes are loaded
[2017-01-21 13:03:24.094] [INFO] server - http server started
[2017-01-21 13:03:24.094] [INFO] server - Listening to port 35000
[2017-01-21 13:03:34.842] [INFO] server - Route Sub System: MASTER
Method: POST
URL:/master/renew/token
[2017-01-21 13:06:30.604] [INFO] server - express loaded
[2017-01-21 13:06:30.609] [INFO] server - all routes are loaded
[2017-01-21 13:06:30.612] [INFO] server - http server started
[2017-01-21 13:06:30.612] [INFO] server - Listening to port 35000
[2017-01-21 13:06:41.942] [INFO] server - Route Sub System: MASTER
Method: POST
URL:/master/renew/token
[2017-01-21 13:07:10.782] [INFO] server - express loaded
[2017-01-21 13:07:10.787] [INFO] server - all routes are loaded
[2017-01-21 13:07:10.789] [INFO] server - http server started
[2017-01-21 13:07:10.790] [INFO] server - Listening to port 35000
[2017-01-21 13:07:15.031] [INFO] server - Route Sub System: MASTER
Method: POST
URL:/master/renew/token
[2017-01-21 13:08:49.070] [INFO] server - express loaded
[2017-01-21 13:08:49.077] [INFO] server - all routes are loaded
[2017-01-21 13:08:49.082] [INFO] server - http server started
[2017-01-21 13:08:49.083] [INFO] server - Listening to port 35000
[2017-01-21 13:09:17.716] [INFO] server - Route Sub System: MASTER
Method: POST
URL:/master/renew/token
[2017-01-21 13:09:42.716] [INFO] server - express loaded
[2017-01-21 13:09:42.721] [INFO] server - all routes are loaded
[2017-01-21 13:09:42.723] [INFO] server - http server started
[2017-01-21 13:09:42.723] [INFO] server - Listening to port 35000
[2017-01-21 13:09:45.636] [INFO] server - Route Sub System: MASTER
Method: POST
URL:/master/renew/token
[2017-01-21 13:10:07.799] [INFO] server - Route Sub System: MASTER
Method: POST
URL:/master/renew/token
[2017-01-21 13:10:15.069] [INFO] server - express loaded
[2017-01-21 13:10:15.074] [INFO] server - all routes are loaded
[2017-01-21 13:10:15.078] [INFO] server - http server started
[2017-01-21 13:10:15.078] [INFO] server - Listening to port 35000
[2017-01-21 13:11:04.616] [INFO] server - Route Sub System: MASTER
Method: POST
URL:/master/renew/token
[2017-01-21 13:12:51.662] [INFO] server - Route Sub System: MASTER
Method: POST
URL:/master/renew/token
[2017-01-21 13:14:10.711] [INFO] server - Route Sub System: MASTER
Method: POST
URL:/master/renew/token
[2017-01-21 13:14:33.434] [INFO] server - Route Sub System: MASTER
Method: POST
URL:/master/renew/token
[2017-01-21 13:14:35.170] [INFO] server - Route Sub System: MASTER
Method: POST
URL:/master/renew/token
[2017-01-21 13:16:33.405] [INFO] server - Route Sub System: MASTER
Method: POST
URL:/master/renew/token
[2017-01-21 13:20:39.784] [INFO] server - Route Sub System: MASTER
Method: POST
URL:/master/renew/token
[2017-01-21 13:21:09.882] [INFO] server - Route Sub System: MASTER
Method: POST
URL:/master/renew/token
[2017-01-21 13:23:12.507] [INFO] server - Route Sub System: MASTER
Method: POST
URL:/master/renew/token
[2017-01-21 13:24:04.673] [INFO] server - Route Sub System: MASTER
Method: POST
URL:/master/renew/token
[2017-01-21 13:25:24.081] [INFO] server - Route Sub System: MASTER
Method: POST
URL:/master/renew/token
[2017-01-21 13:29:49.657] [INFO] server - Route Sub System: MASTER
Method: POST
URL:/master/renew/token
[2017-01-21 13:29:52.916] [INFO] server - Route Sub System: MASTER
Method: POST
URL:/master/renew/token
[2017-01-21 13:30:14.588] [INFO] server - Route Sub System: MASTER
Method: POST
URL:/master/renew/token
[2017-01-21 13:30:18.858] [INFO] server - Route Sub System: MASTER
Method: POST
URL:/master/renew/token
[2017-01-21 13:30:44.345] [INFO] server - Route Sub System: MASTER
Method: POST
URL:/master/renew/token
[2017-01-21 13:33:16.343] [INFO] server - Route Sub System: MASTER
Method: POST
URL:/master/renew/token
[2017-01-27 11:14:12.685] [INFO] server - express loaded
[2017-01-27 11:14:12.690] [INFO] server - all routes are loaded
[2017-01-27 11:14:12.699] [INFO] server - http server started
[2017-01-27 11:14:12.699] [INFO] server - Listening to port 35000
[2017-01-27 11:23:58.531] [INFO] server - Route Sub System: MASTER
Method: POST
URL:/master/renew/token
[2017-01-27 11:27:24.675] [INFO] server - Route Sub System: MASTER
Method: POST
URL:/master/renew/token
[2017-01-27 11:28:59.745] [INFO] server - Route Sub System: MASTER
Method: POST
URL:/master/renew/token
[2017-01-27 11:30:11.678] [INFO] server - Route Sub System: MASTER
Method: POST
URL:/master/renew/token
[2017-01-27 11:30:52.439] [INFO] server - Route Sub System: MASTER
Method: POST
URL:/master/renew/token
[2017-01-27 11:32:49.140] [INFO] server - Route Sub System: MASTER
Method: POST
URL:/master/renew/token
[2017-01-27 11:34:02.681] [INFO] server - Route Sub System: MASTER
Method: POST
URL:/master/renew/token
[2017-01-27 11:34:26.473] [INFO] server - Route Sub System: MASTER
Method: POST
URL:/master/renew/token
[2017-01-27 11:35:40.205] [INFO] server - Route Sub System: MASTER
Method: POST
URL:/master/renew/token
[2017-01-27 11:35:54.755] [INFO] server - Route Sub System: MASTER
Method: POST
URL:/master/renew/token
[2017-01-27 11:47:32.934] [INFO] server - express loaded
[2017-01-27 11:47:32.938] [INFO] server - all routes are loaded
[2017-01-27 11:47:32.941] [INFO] server - http server started
[2017-01-27 11:47:32.941] [INFO] server - Listening to port 35000
[2017-01-27 11:48:47.052] [INFO] server - Route Sub System: MASTER
Method: POST
URL:/master/renew/token
[2017-01-27 11:50:01.021] [INFO] server - express loaded
[2017-01-27 11:50:01.027] [INFO] server - all routes are loaded
[2017-01-27 11:50:01.030] [INFO] server - http server started
[2017-01-27 11:50:01.030] [INFO] server - Listening to port 35000
[2017-01-27 11:50:52.481] [INFO] server - Route Sub System: MASTER
Method: POST
URL:/master/renew/token
[2017-01-27 11:51:28.172] [INFO] server - Route Sub System: MASTER
Method: POST
URL:/master/renew/token
[2017-01-27 11:55:56.492] [INFO] server - express loaded
[2017-01-27 11:55:56.496] [INFO] server - all routes are loaded
[2017-01-27 11:55:56.499] [INFO] server - http server started
[2017-01-27 11:55:56.499] [INFO] server - Listening to port 35000
[2017-01-27 11:56:06.744] [INFO] server - Route Sub System: MASTER
Method: POST
URL:/master/renew/token
[2017-01-27 11:56:28.648] [INFO] server - Route Sub System: MASTER
Method: POST
URL:/master/renew/token
[2017-01-27 11:56:50.892] [INFO] server - Route Sub System: MASTER
Method: POST
URL:/master/renew/token
[2017-01-27 12:00:35.117] [INFO] server - express loaded
[2017-01-27 12:00:35.122] [INFO] server - all routes are loaded
[2017-01-27 12:00:35.124] [INFO] server - http server started
[2017-01-27 12:00:35.124] [INFO] server - Listening to port 35000
[2017-01-27 12:00:41.237] [INFO] server - Route Sub System: MASTER
Method: POST
URL:/master/renew/token
[2017-01-27 12:03:23.219] [INFO] server - Route Sub System: MASTER
Method: POST
URL:/master/renew/token
[2017-01-27 12:09:17.442] [INFO] server - Route Sub System: MASTER
Method: POST
URL:/master/renew/token
[2017-01-27 12:13:46.012] [INFO] server - express loaded
[2017-01-27 12:13:46.016] [INFO] server - all routes are loaded
[2017-01-27 12:13:46.019] [INFO] server - http server started
[2017-01-27 12:13:46.019] [INFO] server - Listening to port 35000
[2017-01-27 12:16:34.578] [INFO] server - express loaded
[2017-01-27 12:16:34.582] [INFO] server - all routes are loaded
[2017-01-27 12:16:34.588] [INFO] server - http server started
[2017-01-27 12:16:34.588] [INFO] server - Listening to port 35000
[2017-01-27 12:16:42.113] [INFO] server - Route Sub System: MASTER
Method: POST
URL:/master/renew/token
[2017-01-27 12:17:40.911] [INFO] server - Route Sub System: MASTER
Method: POST
URL:/master/renew/token
[2017-01-27 12:17:42.854] [INFO] server - Route Sub System: MASTER
Method: POST
URL:/master/renew/token
[2017-01-27 12:18:06.694] [INFO] server - Route Sub System: MASTER
Method: POST
URL:/master/renew/token
[2017-01-27 12:18:21.263] [INFO] server - Route Sub System: MASTER
Method: POST
URL:/master/renew/token
[2017-01-27 12:18:34.952] [INFO] server - express loaded
[2017-01-27 12:18:34.957] [INFO] server - all routes are loaded
[2017-01-27 12:18:34.959] [INFO] server - http server started
[2017-01-27 12:18:34.959] [INFO] server - Listening to port 35000
[2017-01-27 12:18:41.052] [INFO] server - express loaded
[2017-01-27 12:18:41.057] [INFO] server - all routes are loaded
[2017-01-27 12:18:41.060] [INFO] server - http server started
[2017-01-27 12:18:41.060] [INFO] server - Listening to port 35000
[2017-01-27 12:18:47.935] [INFO] server - Route Sub System: MASTER
Method: POST
URL:/master/renew/token
[2017-01-27 12:20:10.129] [INFO] server - Route Sub System: MASTER
Method: POST
URL:/master/renew/token
[2017-01-27 12:20:43.889] [INFO] server - Route Sub System: MASTER
Method: POST
URL:/master/renew/token
[2017-04-05 13:19:37.020] [INFO] server - express loaded
[2017-04-05 13:19:37.053] [INFO] server - all routes are loaded
[2017-04-05 13:19:37.061] [INFO] server - http server started
[2017-04-05 13:19:37.061] [INFO] server - Listening to port 35000
[2017-04-05 13:20:01.536] [INFO] server - Route Sub System: MASTER
Method: POST
URL:/master/renew/token
[2017-04-05 13:21:00.645] [INFO] server - Route Sub System: MASTER
Method: POST
URL:/master/renew/token
[2017-04-05 13:21:39.429] [INFO] server - Route Sub System: MASTER
Method: POST
URL:/master/renew/token
[2017-04-05 13:21:42.533] [INFO] server - Route Sub System: MASTER
Method: POST
URL:/master/renew/token
[2017-04-05 13:25:18.457] [INFO] server - Route Sub System: MASTER
Method: POST
URL:/master/renew/token
[2017-04-05 13:26:13.512] [INFO] server - Route Sub System: MASTER
Method: POST
URL:/master/renew/token
[2017-04-05 13:28:20.112] [INFO] server - Route Sub System: MASTER
Method: POST
URL:/master/renew/token
[2017-04-05 13:28:59.664] [INFO] server - Route Sub System: MASTER
Method: POST
URL:/master/renew/token
[2017-04-05 13:29:54.145] [INFO] server - Route Sub System: MASTER
Method: POST
URL:/master/renew/token
[2017-04-05 13:30:34.991] [INFO] server - Route Sub System: MASTER
Method: POST
URL:/master/renew/token
[2017-04-05 13:31:31.361] [INFO] server - Route Sub System: MASTER
Method: POST
URL:/master/renew/token
[2017-04-05 13:32:19.739] [INFO] server - Route Sub System: MASTER
Method: POST
URL:/master/renew/token
[2017-04-05 13:32:57.840] [INFO] server - Route Sub System: MASTER
Method: POST
URL:/master/renew/token
[2017-04-05 13:33:13.401] [INFO] server - Route Sub System: MASTER
Method: POST
URL:/master/renew/token
[2017-04-05 13:34:00.778] [INFO] server - Route Sub System: MASTER
Method: POST
URL:/master/renew/token
[2017-04-05 13:34:18.738] [INFO] server - Route Sub System: MASTER
Method: POST
URL:/master/renew/token
[2017-04-05 13:35:06.388] [INFO] server - Route Sub System: MASTER
Method: POST
URL:/master/renew/token
[2017-04-05 13:35:14.272] [INFO] server - Route Sub System: MASTER
Method: POST
URL:/master/renew/token
[2017-04-05 13:35:52.957] [INFO] server - Route Sub System: MASTER
Method: POST
URL:/master/renew/token
[2017-04-05 13:36:05.290] [INFO] server - Route Sub System: MASTER
Method: POST
URL:/master/renew/token
[2017-04-05 13:36:16.663] [INFO] server - Route Sub System: MASTER
Method: POST
URL:/master/renew/token
[2017-04-05 14:22:06.282] [INFO] server - express loaded
[2017-04-05 14:22:06.294] [INFO] server - all routes are loaded
[2017-04-05 14:22:06.299] [INFO] server - http server started
[2017-04-05 14:22:06.299] [INFO] server - Listening to port 35000
[2017-04-05 14:22:16.208] [INFO] server - Route Sub System: MASTER
Method: POST
URL:/master/renew/token
[2017-04-05 14:22:18.602] [INFO] server - Route Sub System: MASTER
Method: POST
URL:/master/renew/token
[2017-04-05 14:22:41.968] [INFO] server - Route Sub System: MASTER
Method: POST
URL:/master/renew/token
[2017-04-05 14:23:03.743] [INFO] server - Route Sub System: MASTER
Method: POST
URL:/master/renew/token
[2017-04-05 14:23:36.983] [INFO] server - Route Sub System: MASTER
Method: POST
URL:/master/renew/token
[2017-04-05 14:25:08.020] [INFO] server - Route Sub System: MASTER
Method: POST
URL:/master/renew/token
[2017-04-05 14:26:20.208] [INFO] server - Route Sub System: MASTER
Method: POST
URL:/master/renew/token
[2017-04-05 14:30:16.912] [INFO] server - Route Sub System: MASTER
Method: POST
URL:/master/renew/token
[2017-04-05 14:31:12.794] [INFO] server - Route Sub System: MASTER
Method: POST
URL:/master/renew/token
[2017-04-05 14:32:19.136] [INFO] server - Route Sub System: MASTER
Method: POST
URL:/master/renew/token
[2017-04-05 14:32:48.926] [INFO] server - Route Sub System: MASTER
Method: POST
URL:/master/renew/token
[2017-04-05 14:37:22.093] [INFO] server - Route Sub System: MASTER
Method: POST
URL:/master/renew/token
[2017-04-05 14:38:47.261] [INFO] server - Route Sub System: MASTER
Method: POST
URL:/master/renew/token
[2017-04-05 14:40:52.252] [INFO] server - Route Sub System: MASTER
Method: POST
URL:/master/renew/token
[2017-04-05 14:41:13.365] [INFO] server - Route Sub System: MASTER
Method: POST
URL:/master/renew/token
[2017-04-05 14:41:27.173] [INFO] server - Route Sub System: MASTER
Method: POST
URL:/master/renew/token
