[2017-04-05 14:41:38.774] [INFO] server - Route Sub System: MASTER
Method: POST
URL:/master/renew/token
[2017-04-05 14:41:50.592] [INFO] server - Route Sub System: MASTER
Method: POST
URL:/master/renew/token
[2017-04-05 14:42:27.744] [INFO] server - Route Sub System: MASTER
Method: POST
URL:/master/renew/token
[2017-04-05 14:43:35.038] [INFO] server - Route Sub System: MASTER
Method: POST
URL:/master/renew/token
[2017-04-05 14:44:07.677] [INFO] server - Route Sub System: MASTER
Method: POST
URL:/master/renew/token
[2017-04-05 14:44:58.670] [INFO] server - Route Sub System: MASTER
Method: POST
URL:/master/renew/token
[2017-04-05 14:51:07.250] [INFO] server - express loaded
[2017-04-05 14:51:07.260] [INFO] server - all routes are loaded
[2017-04-05 14:51:07.265] [INFO] server - http server started
[2017-04-05 14:51:07.265] [INFO] server - Listening to port 35000
[2017-04-05 14:51:19.196] [INFO] server - Route Sub System: uncaught error- exiting
Method: uncaught error
URL:/{}uncaught error
[2017-04-05 14:51:23.010] [INFO] server - Route Sub System: MASTER
Method: POST
URL:/master/renew/token
[2017-04-05 14:51:41.921] [INFO] server - express loaded
[2017-04-05 14:51:41.931] [INFO] server - all routes are loaded
[2017-04-05 14:51:41.935] [INFO] server - http server started
[2017-04-05 14:51:41.936] [INFO] server - Listening to port 35000
[2017-04-05 14:51:51.102] [INFO] server - Route Sub System: MASTER
Method: POST
URL:/master/renew/token
[2017-04-05 14:54:32.460] [INFO] server - Route Sub System: MASTER
Method: POST
URL:/master/renew/token
[2017-04-05 15:08:46.015] [INFO] server - express loaded
[2017-04-05 15:08:46.025] [INFO] server - all routes are loaded
[2017-04-05 15:08:46.029] [INFO] server - http server started
[2017-04-05 15:08:46.030] [INFO] server - Listening to port 35000
[2017-04-05 15:09:23.796] [INFO] server - Route Sub System: MASTER
Method: POST
URL:/master/renew/token
[2017-04-05 15:09:26.079] [INFO] server - express loaded
[2017-04-05 15:09:26.089] [INFO] server - all routes are loaded
[2017-04-05 15:09:26.093] [INFO] server - http server started
[2017-04-05 15:09:26.094] [INFO] server - Listening to port 35000
[2017-04-05 15:20:49.315] [INFO] server - express loaded
[2017-04-05 15:20:49.326] [INFO] server - all routes are loaded
[2017-04-05 15:20:49.331] [INFO] server - http server started
[2017-04-05 15:20:49.331] [INFO] server - Listening to port 35000
[2017-04-05 15:23:23.804] [INFO] server - Route Sub System: MASTER
Method: POST
URL:/master/renew/token
[2017-04-05 15:23:49.021] [INFO] server - Route Sub System: MASTER
Method: POST
URL:/master/renew/token
[2017-04-05 15:23:52.099] [INFO] server - Route Sub System: MASTER
Method: POST
URL:/master/renew/token
[2017-04-05 15:23:54.283] [INFO] server - Route Sub System: MASTER
Method: POST
URL:/master/renew/token
[2017-04-05 15:23:56.957] [INFO] server - Route Sub System: MASTER
Method: POST
URL:/master/renew/token
[2017-04-05 15:26:30.467] [INFO] server - Route Sub System: MASTER
Method: POST
URL:/master/renew/token
[2017-04-05 15:26:39.105] [INFO] server - Route Sub System: MASTER
Method: POST
URL:/master/renew/token
[2017-04-05 15:31:11.934] [INFO] server - express loaded
[2017-04-05 15:31:11.947] [INFO] server - all routes are loaded
[2017-04-05 15:31:11.953] [INFO] server - http server started
[2017-04-05 15:31:11.953] [INFO] server - Listening to port 35000
[2017-04-05 15:31:14.239] [INFO] server - Route Sub System: uncaught error- exiting
Method: uncaught error
URL:/{"code":"EADDRINUSE","errno":"EADDRINUSE","syscall":"listen","address":"::","port":35000}uncaught error
[2017-04-05 15:31:26.673] [INFO] server - express loaded
[2017-04-05 15:31:26.685] [INFO] server - all routes are loaded
[2017-04-05 15:31:26.691] [INFO] server - http server started
[2017-04-05 15:31:26.691] [INFO] server - Listening to port 35000
[2017-04-05 15:31:29.177] [INFO] server - Route Sub System: uncaught error- exiting
Method: uncaught error
URL:/{"code":"EADDRINUSE","errno":"EADDRINUSE","syscall":"listen","address":"::","port":35000}uncaught error
[2017-04-05 15:31:48.422] [INFO] server - express loaded
[2017-04-05 15:31:48.432] [INFO] server - all routes are loaded
[2017-04-05 15:31:48.437] [INFO] server - http server started
[2017-04-05 15:31:48.437] [INFO] server - Listening to port 35001
[2017-04-05 15:32:35.763] [INFO] server - Route Sub System: MASTER
Method: POST
URL:/master/renew/token
[2017-04-05 15:32:41.914] [INFO] server - Route Sub System: MASTER
Method: POST
URL:/master/renew/token
[2017-04-05 15:34:12.253] [INFO] server - Route Sub System: uncaught error- exiting
Method: uncaught error
URL:/{}uncaught error
[2017-04-05 15:34:51.863] [INFO] server - express loaded
[2017-04-05 15:34:51.872] [INFO] server - all routes are loaded
[2017-04-05 15:34:51.878] [INFO] server - http server started
[2017-04-05 15:34:51.878] [INFO] server - Listening to port 35001
[2017-04-05 15:34:58.295] [INFO] server - express loaded
[2017-04-05 15:34:58.310] [INFO] server - all routes are loaded
[2017-04-05 15:34:58.315] [INFO] server - http server started
[2017-04-05 15:34:58.315] [INFO] server - Listening to port 35001
[2017-04-05 15:35:51.634] [INFO] server - express loaded
[2017-04-05 15:35:51.644] [INFO] server - all routes are loaded
[2017-04-05 15:35:51.649] [INFO] server - http server started
[2017-04-05 15:35:51.649] [INFO] server - Listening to port 35001
[2017-04-05 15:35:56.879] [INFO] server - express loaded
[2017-04-05 15:35:56.894] [INFO] server - all routes are loaded
[2017-04-05 15:35:56.901] [INFO] server - http server started
[2017-04-05 15:35:56.901] [INFO] server - Listening to port 35001
[2017-04-05 16:03:24.010] [INFO] server - express loaded
[2017-04-05 16:03:24.021] [INFO] server - all routes are loaded
[2017-04-05 16:03:24.026] [INFO] server - http server started
[2017-04-05 16:03:24.026] [INFO] server - Listening to port 35001
[2017-04-05 16:03:33.904] [INFO] server - Route Sub System: uncaught error- exiting
Method: uncaught error
URL:/{}uncaught error
[2017-04-05 16:03:36.699] [INFO] server - Route Sub System: MASTER
Method: POST
URL:/master/renew/token
[2017-04-05 16:05:24.554] [INFO] server - express loaded
[2017-04-05 16:05:24.572] [INFO] server - all routes are loaded
[2017-04-05 16:05:24.579] [INFO] server - http server started
[2017-04-05 16:05:24.580] [INFO] server - Listening to port 35001
[2017-04-05 16:05:32.942] [INFO] server - Route Sub System: uncaught error- exiting
Method: uncaught error
URL:/{}uncaught error
[2017-04-05 16:05:38.430] [INFO] server - Route Sub System: uncaught error- exiting
Method: uncaught error
URL:/{}uncaught error
[2017-04-05 16:07:32.952] [INFO] server - Route Sub System: uncaught error- exiting
Method: uncaught error
URL:/{}uncaught error
[2017-04-05 16:07:38.511] [INFO] server - Route Sub System: uncaught error- exiting
Method: uncaught error
URL:/{}uncaught error
[2017-04-05 16:07:43.409] [INFO] server - express loaded
[2017-04-05 16:07:43.418] [INFO] server - all routes are loaded
[2017-04-05 16:07:43.423] [INFO] server - http server started
[2017-04-05 16:07:43.423] [INFO] server - Listening to port 35001
[2017-04-05 16:13:39.430] [INFO] server - express loaded
[2017-04-05 16:13:39.446] [INFO] server - all routes are loaded
[2017-04-05 16:13:39.453] [INFO] server - http server started
[2017-04-05 16:13:39.454] [INFO] server - Listening to port 35001
[2017-04-05 16:13:47.504] [INFO] server - Route Sub System: MASTER
Method: POST
URL:/master/renew/token
[2017-04-05 16:15:31.465] [INFO] server - express loaded
[2017-04-05 16:15:31.495] [INFO] server - all routes are loaded
[2017-04-05 16:15:31.539] [INFO] server - http server started
[2017-04-05 16:15:31.539] [INFO] server - Listening to port 35001
[2017-04-05 16:16:15.489] [INFO] server - express loaded
[2017-04-05 16:16:15.583] [INFO] server - all routes are loaded
[2017-04-05 16:16:15.591] [INFO] server - http server started
[2017-04-05 16:16:15.592] [INFO] server - Listening to port 35001
[2017-04-05 16:16:20.359] [INFO] server - express loaded
[2017-04-05 16:16:20.375] [INFO] server - all routes are loaded
[2017-04-05 16:16:20.383] [INFO] server - http server started
[2017-04-05 16:16:20.383] [INFO] server - Listening to port 35001
[2017-04-05 16:18:42.582] [INFO] server - express loaded
[2017-04-05 16:18:42.591] [INFO] server - all routes are loaded
[2017-04-05 16:18:42.596] [INFO] server - http server started
[2017-04-05 16:18:42.596] [INFO] server - Listening to port 35001
[2017-04-05 16:19:21.670] [INFO] server - Route Sub System: MASTER
Method: POST
URL:/master/renew/token
[2017-04-05 16:19:37.889] [INFO] server - Route Sub System: MASTER
Method: POST
URL:/master/renew/token
[2017-04-05 16:23:01.620] [INFO] server - Route Sub System: MASTER
Method: POST
URL:/master/renew/token
[2017-04-05 16:25:06.198] [INFO] server - Route Sub System: MASTER
Method: POST
URL:/master/renew/token
[2017-04-05 16:25:57.523] [INFO] server - Route Sub System: MASTER
Method: POST
URL:/master/renew/token
[2017-04-05 16:26:05.721] [INFO] server - Route Sub System: MASTER
Method: POST
URL:/master/renew/token
[2017-04-05 16:28:08.766] [INFO] server - Route Sub System: MASTER
Method: POST
URL:/master/renew/token
[2017-04-05 16:28:37.515] [INFO] server - Route Sub System: MASTER
Method: POST
URL:/master/renew/token
[2017-04-05 16:29:21.540] [INFO] server - Route Sub System: MASTER
Method: POST
URL:/master/renew/token
[2017-04-05 16:29:31.067] [INFO] server - Route Sub System: MASTER
Method: POST
URL:/master/renew/token
[2017-04-05 16:29:35.846] [INFO] server - Route Sub System: MASTER
Method: POST
URL:/master/renew/token
[2017-04-05 16:29:39.491] [INFO] server - Route Sub System: MASTER
Method: POST
URL:/master/renew/token
[2017-04-05 16:29:42.587] [INFO] server - Route Sub System: MASTER
Method: POST
URL:/master/renew/token
[2017-04-05 16:29:49.277] [INFO] server - Route Sub System: MASTER
Method: POST
URL:/master/renew/token
[2017-04-05 16:29:49.282] [INFO] server - Route Sub System: MASTER
Method: POST
URL:/master/renew/token
[2017-04-05 16:29:50.258] [INFO] server - Route Sub System: MASTER
Method: POST
URL:/master/renew/token
[2017-04-05 16:29:51.735] [INFO] server - Route Sub System: MASTER
Method: POST
URL:/master/renew/token
[2017-04-05 16:29:53.419] [INFO] server - Route Sub System: MASTER
Method: POST
URL:/master/renew/token
[2017-04-05 16:30:00.203] [INFO] server - Route Sub System: MASTER
Method: POST
URL:/master/renew/token
[2017-04-05 16:30:11.384] [INFO] server - Route Sub System: MASTER
Method: POST
URL:/master/renew/token
[2017-04-05 16:30:11.772] [INFO] server - Route Sub System: MASTER
Method: POST
URL:/master/renew/token
[2017-04-05 16:30:16.160] [INFO] server - Route Sub System: MASTER
Method: POST
URL:/master/renew/token
[2017-04-05 16:30:22.222] [INFO] server - Route Sub System: MASTER
Method: POST
URL:/master/renew/token
[2017-04-05 16:30:30.529] [INFO] server - Route Sub System: MASTER
Method: POST
URL:/master/renew/token
[2017-04-05 16:30:38.714] [INFO] server - Route Sub System: MASTER
Method: POST
URL:/master/renew/token
[2017-04-05 16:30:47.109] [INFO] server - Route Sub System: MASTER
Method: POST
URL:/master/renew/token
[2017-04-05 16:35:50.328] [INFO] server - express loaded
[2017-04-05 16:35:50.338] [INFO] server - all routes are loaded
[2017-04-05 16:35:50.343] [INFO] server - http server started
[2017-04-05 16:35:50.344] [INFO] server - Listening to port 35001
[2017-04-05 16:36:00.624] [INFO] server - Route Sub System: MASTER
Method: POST
URL:/master/renew/token
[2017-04-05 16:36:05.669] [INFO] server - Route Sub System: MASTER
Method: POST
URL:/master/renew/token
[2017-04-05 16:38:16.304] [INFO] server - express loaded
[2017-04-05 16:38:16.313] [INFO] server - all routes are loaded
[2017-04-05 16:38:16.318] [INFO] server - http server started
[2017-04-05 16:38:16.318] [INFO] server - Listening to port 35001
[2017-04-05 16:38:21.975] [INFO] server - express loaded
[2017-04-05 16:38:21.992] [INFO] server - all routes are loaded
[2017-04-05 16:38:22.009] [INFO] server - http server started
[2017-04-05 16:38:22.011] [INFO] server - Listening to port 35001
[2017-04-05 16:39:42.283] [INFO] server - express loaded
[2017-04-05 16:39:42.296] [INFO] server - all routes are loaded
[2017-04-05 16:39:42.303] [INFO] server - http server started
[2017-04-05 16:39:42.304] [INFO] server - Listening to port 35001
[2017-04-05 16:41:18.683] [INFO] server - Route Sub System: MASTER
Method: POST
URL:/master/renew/token
[2017-04-05 16:41:48.905] [INFO] server - Route Sub System: MASTER
Method: POST
URL:/master/renew/token
[2017-04-05 16:44:21.681] [INFO] server - Route Sub System: MASTER
Method: POST
URL:/master/renew/token
[2017-04-05 16:46:31.791] [INFO] server - express loaded
[2017-04-05 16:46:31.800] [INFO] server - all routes are loaded
[2017-04-05 16:46:31.805] [INFO] server - http server started
[2017-04-05 16:46:31.806] [INFO] server - Listening to port 35001
[2017-04-05 16:46:45.039] [INFO] server - Route Sub System: MASTER
Method: POST
URL:/master/renew/token
[2017-04-05 16:47:43.111] [INFO] server - Route Sub System: MASTER
Method: POST
URL:/master/renew/token
[2017-04-05 16:47:45.257] [INFO] server - Route Sub System: MASTER
Method: POST
URL:/master/renew/token
[2017-04-05 16:47:45.262] [INFO] server - Route Sub System: MASTER
Method: POST
URL:/master/renew/token
[2017-04-05 16:48:01.577] [INFO] server - Route Sub System: MASTER
Method: POST
URL:/master/renew/token
[2017-04-05 16:48:06.204] [INFO] server - Route Sub System: MASTER
Method: POST
URL:/master/renew/token
[2017-04-05 16:49:50.978] [INFO] server - express loaded
[2017-04-05 16:49:50.988] [INFO] server - all routes are loaded
[2017-04-05 16:49:50.993] [INFO] server - http server started
[2017-04-05 16:49:50.993] [INFO] server - Listening to port 35001
[2017-04-05 16:49:55.559] [INFO] server - express loaded
[2017-04-05 16:49:55.576] [INFO] server - all routes are loaded
[2017-04-05 16:49:55.584] [INFO] server - http server started
[2017-04-05 16:49:55.584] [INFO] server - Listening to port 35001
[2017-04-05 16:50:34.463] [INFO] server - Route Sub System: MASTER
Method: POST
URL:/master/renew/token
[2017-04-05 16:50:36.367] [INFO] server - Route Sub System: MASTER
Method: POST
URL:/master/renew/token
[2017-04-05 16:50:42.272] [INFO] server - Route Sub System: MASTER
Method: POST
URL:/master/renew/token
[2017-04-05 16:50:44.341] [INFO] server - Route Sub System: MASTER
Method: POST
URL:/master/renew/token
[2017-04-05 16:50:49.789] [INFO] server - Route Sub System: MASTER
Method: POST
URL:/master/renew/token
[2017-04-05 16:50:53.127] [INFO] server - Route Sub System: MASTER
Method: POST
URL:/master/renew/token
[2017-04-05 16:51:00.216] [INFO] server - Route Sub System: MASTER
Method: POST
URL:/master/renew/token
[2017-04-05 16:53:22.219] [INFO] server - Route Sub System: MASTER
Method: POST
URL:/master/renew/token
[2017-04-05 16:54:00.609] [INFO] server - Route Sub System: MASTER
Method: POST
URL:/master/renew/token
[2017-04-05 16:54:18.826] [INFO] server - Route Sub System: MASTER
Method: POST
URL:/master/renew/token
[2017-04-05 16:54:54.244] [INFO] server - Route Sub System: MASTER
Method: POST
URL:/master/renew/token
[2017-04-05 16:58:50.320] [INFO] server - Route Sub System: MASTER
Method: POST
URL:/master/renew/token
[2017-04-05 16:59:35.569] [INFO] server - Route Sub System: MASTER
Method: POST
URL:/master/renew/token
[2017-04-05 17:00:14.924] [INFO] server - Route Sub System: MASTER
Method: POST
URL:/master/renew/token
[2017-04-05 17:00:16.718] [INFO] server - Route Sub System: MASTER
Method: POST
URL:/master/renew/token
[2017-04-05 17:00:19.834] [INFO] server - Route Sub System: MASTER
Method: POST
URL:/master/renew/token
[2017-04-05 17:01:06.894] [INFO] server - Route Sub System: MASTER
Method: POST
URL:/master/renew/token
[2017-04-05 17:01:07.860] [INFO] server - Route Sub System: MASTER
Method: POST
URL:/master/renew/token
[2017-04-05 17:01:10.531] [INFO] server - Route Sub System: MASTER
Method: POST
URL:/master/renew/token
[2017-04-05 17:05:34.252] [INFO] server - express loaded
[2017-04-05 17:05:34.262] [INFO] server - all routes are loaded
[2017-04-05 17:05:34.267] [INFO] server - http server started
[2017-04-05 17:05:34.267] [INFO] server - Listening to port 35001
[2017-04-05 17:05:53.752] [INFO] server - Route Sub System: MASTER
Method: POST
URL:/master/renew/token
[2017-04-05 17:05:56.338] [INFO] server - Route Sub System: MASTER
Method: POST
URL:/master/renew/token
[2017-04-05 17:12:55.887] [INFO] server - express loaded
[2017-04-05 17:12:55.897] [INFO] server - all routes are loaded
[2017-04-05 17:12:55.905] [INFO] server - http server started
[2017-04-05 17:12:55.905] [INFO] server - Listening to port 35001
[2017-04-05 17:14:21.226] [INFO] server - express loaded
[2017-04-05 17:14:21.242] [INFO] server - all routes are loaded
[2017-04-05 17:14:21.250] [INFO] server - http server started
[2017-04-05 17:14:21.251] [INFO] server - Listening to port 35001
[2017-04-05 17:14:53.919] [INFO] server - express loaded
[2017-04-05 17:14:53.929] [INFO] server - all routes are loaded
[2017-04-05 17:14:53.934] [INFO] server - http server started
[2017-04-05 17:14:53.934] [INFO] server - Listening to port 35001
[2017-04-05 17:14:58.902] [INFO] server - express loaded
[2017-04-05 17:14:58.912] [INFO] server - all routes are loaded
[2017-04-05 17:14:58.917] [INFO] server - http server started
[2017-04-05 17:14:58.917] [INFO] server - Listening to port 35001
[2017-04-05 17:20:21.982] [INFO] server - express loaded
[2017-04-05 17:20:21.992] [INFO] server - all routes are loaded
[2017-04-05 17:20:21.997] [INFO] server - http server started
[2017-04-05 17:20:21.997] [INFO] server - Listening to port 35001
[2017-04-05 17:20:31.427] [INFO] server - Route Sub System: MASTER
Method: POST
URL:/master/renew/token
[2017-04-05 17:21:44.101] [INFO] server - express loaded
[2017-04-05 17:21:44.112] [INFO] server - all routes are loaded
[2017-04-05 17:21:44.117] [INFO] server - http server started
[2017-04-05 17:21:44.117] [INFO] server - Listening to port 35001
[2017-04-05 17:21:54.390] [INFO] server - express loaded
[2017-04-05 17:21:54.400] [INFO] server - all routes are loaded
[2017-04-05 17:21:54.404] [INFO] server - http server started
[2017-04-05 17:21:54.405] [INFO] server - Listening to port 35001
[2017-04-05 17:30:25.104] [INFO] server - express loaded
[2017-04-05 17:30:25.113] [INFO] server - all routes are loaded
[2017-04-05 17:30:25.118] [INFO] server - http server started
[2017-04-05 17:30:25.118] [INFO] server - Listening to port 35001
[2017-04-05 17:30:38.715] [INFO] server - Route Sub System: MASTER
Method: POST
URL:/master/renew/token
[2017-04-05 17:36:06.374] [INFO] server - express loaded
[2017-04-05 17:36:06.384] [INFO] server - all routes are loaded
[2017-04-05 17:36:06.390] [INFO] server - http server started
[2017-04-05 17:36:06.390] [INFO] server - Listening to port 35001
[2017-04-05 17:44:13.753] [INFO] server - express loaded
[2017-04-05 17:44:13.765] [INFO] server - all routes are loaded
[2017-04-05 17:44:13.771] [INFO] server - http server started
[2017-04-05 17:44:13.772] [INFO] server - Listening to port 35001
[2017-04-05 17:44:37.144] [INFO] server - Route Sub System: MASTER
Method: POST
URL:/master/renew/token
[2017-04-05 17:46:11.291] [INFO] server - express loaded
[2017-04-05 17:46:11.315] [INFO] server - all routes are loaded
[2017-04-05 17:46:11.322] [INFO] server - http server started
[2017-04-05 17:46:11.323] [INFO] server - Listening to port 35001
[2017-04-05 17:46:13.404] [INFO] server - Route Sub System: uncaught error- exiting
Method: uncaught error
URL:/{"code":"EADDRINUSE","errno":"EADDRINUSE","syscall":"listen","address":"::","port":35001}uncaught error
[2017-04-05 17:46:24.222] [INFO] server - express loaded
[2017-04-05 17:46:24.234] [INFO] server - all routes are loaded
[2017-04-05 17:46:24.240] [INFO] server - http server started
[2017-04-05 17:46:24.241] [INFO] server - Listening to port 35002
[2017-04-05 17:47:21.381] [INFO] server - Route Sub System: MASTER
Method: POST
URL:/master/renew/token
[2017-04-05 17:47:24.643] [INFO] server - Route Sub System: MASTER
Method: POST
URL:/master/renew/token
