
{
"appenders": [
{
"type": "file",
"filename": "./log/server.log",
"maxLogSize": 20480,
"backups": 3,
"category": "server"
},
    {
        "type": "file",
        "filename": "./log/api.log",
        "maxLogSize": 20480,
        "backups": 3,
        "category": "api"
    },
    {
        "type": "file",
        "filename": "./log/audit.log",
        "maxLogSize": 20480,
        "backups": 3,
        "category": "audit"
    },
    {
        "type": "file",
        "filename": "./log/user.log",
        "maxLogSize": 20480,
        "backups": 3,
        "category": "user"
    },
    {
        "type": "file",
        "filename": "./log/user_security.log",
        "maxLogSize": 20480,
        "backups": 3,
        "category": "user_securty"
    },
    {
        "type": "file",
        "filename": "./log/proj.log",
        "maxLogSize": 20480,
        "backups": 3,
        "category": "proj"
    },
    {
        "type": "file",
        "filename": "./log/req.log",
        "maxLogSize": 20480,
        "backups": 3,
        "category": "req"
    },
    {
        "type": "file",
        "filename": "./log/testcase.log",
        "maxLogSize": 20480,
        "backups": 3,
        "category": "testcase"
    },
    {
        "type": "file",
        "filename": "./log/testscenario.log",
        "maxLogSize": 20480,
        "backups": 3,
        "category": "testscenario"
    },
    {
        "type": "console"
    }

]
}